C:\formacion\src\main\java\net\techu\data\ProductoMongo.java
C:\formacion\src\main\java\net\techu\data\ProductoRepository.java
C:\formacion\src\main\java\net\techu\SaludoController.java
C:\formacion\src\main\java\net\techu\ProductosV3Controller.java
C:\formacion\src\main\java\net\techu\BeanContexto.java
C:\formacion\src\main\java\net\techu\ProductosController.java
C:\formacion\src\main\java\net\techu\BeanPersonalizacion.java
C:\formacion\src\main\java\net\techu\Productos.java
C:\formacion\src\main\java\net\techu\TiendaApplication.java
C:\formacion\src\main\java\net\techu\ProductosV4Controller.java
C:\formacion\src\main\java\com\example\formacion\FormacionApplication.java
C:\formacion\src\main\java\net\techu\ProductosV2Controller.java
C:\formacion\src\main\java\com\example\formacion\SaludoController.java
